Lab 03 - Nobel laureates
…
In a single pipeline, filter for laureates who won their prize in the US, but were born outside of the US, and then create a frequency table (with the count() function) for their birth country (born_country) and arrange the resulting data frame in descending order of number of observations for each country. Which country is the most common?

Build your pipeline:

# Remember to change eval=FALSE to eval=TRUE!
nobel_living_science %>%
  filter(
    country_us == "USA",
    born_country_us == "Other"
  ) %>%
  count(born_country) %>%
  arrange(desc(n))

## # A tibble: 21 × 2
##    born_country       n
##    <chr>          <int>
##  1 Germany            7
##  2 United Kingdom     7
##  3 China              5
##  4 Canada             4
##  5 Japan              3
##  6 Australia          2
##  7 Israel             2
##  8 Norway             2
##  9 Austria            1
## 10 Finland            1
## # ℹ 11 more rows
…
