Lab 04 - La Quinta is Spanish for next to Denny’s, Pt. 1
…
Exercise 9

Which states have the most and fewest Denny’s locations? What about La Quinta? Is this surprising? Why or why not?

First, count locations by state:

# Remember to change eval=FALSE to eval=TRUE!

# Denny's by state
dennys %>%
  count(state) %>%
  arrange(n)

## # A tibble: 51 × 2
##    state     n
##    <chr> <int>
##  1 DE        1
##  2 DC        2
##  3 VT        2
##  4 AK        3
##  5 IA        3
##  6 NH        3
##  7 SD        3
##  8 WV        3
##  9 LA        4
## 10 MT        4
## # ℹ 41 more rows

dennys %>%
  count(state) %>%
  arrange(desc(n))

## # A tibble: 51 × 2
##    state     n
##    <chr> <int>
##  1 CA      403
##  2 TX      200
##  3 FL      140
##  4 AZ       83
##  5 IL       56
##  6 NY       56
##  7 WA       49
##  8 OH       44
##  9 MO       42
## 10 PA       40
## # ℹ 41 more rows

# La Quinta by state
laquinta %>%
  count(state) %>%
  arrange(n)

## # A tibble: 48 × 2
##    state     n
##    <chr> <int>
##  1 ME        1
##  2 AK        2
##  3 NH        2
##  4 RI        2
##  5 SD        2
##  6 VT        2
##  7 WV        3
##  8 WY        3
##  9 IA        4
## 10 MI        4
## # ℹ 38 more rows

laquinta %>%
  count(state) %>%
  arrange(desc(n))

## # A tibble: 48 × 2
##    state     n
##    <chr> <int>
##  1 TX      237
##  2 FL       74
##  3 CA       56
##  4 GA       41
##  5 TN       30
##  6 OK       29
##  7 LA       28
##  8 CO       27
##  9 NM       19
## 10 NY       19
## # ℹ 38 more rows
…
Is this surprising? Why or why not?

I think this is unsurprising because Maine and Delaware have significantly lower populations than other states such as California or New York.

Calculating Density

Next, let’s calculate which states have the most Denny’s locations per thousand square miles. This requires joining information from the frequency tables you created in Exercise 9 with information from the states data frame.

First, we count how many observations are in each state, which will give us a data frame with two variables: state and n. Then, we join this data frame with the states data frame. However note that the variable in the states data frame that has the two-letter abbreviations is called abbreviation. So when we’re joining the two data frames we specify that the state variable from the Denny’s data should be matched by the abbreviation variable from the states data:

dennys %>%
  count(state) %>%
  inner_join(states, by = c("state" = "abbreviation"))

## # A tibble: 51 × 4
##    state     n name                     area
##    <chr> <int> <chr>                   <dbl>
##  1 AK        3 Alaska               665384. 
##  2 AL        7 Alabama               52420. 
##  3 AR        9 Arkansas              53179. 
##  4 AZ       83 Arizona              113990. 
##  5 CA      403 California           163695. 
##  6 CO       29 Colorado             104094. 
##  7 CT       12 Connecticut            5543. 
##  8 DC        2 District of Columbia     68.3
##  9 DE        1 Delaware               2489. 
## 10 FL      140 Florida               65758. 
## # ℹ 41 more rows
…
Exercise 10

Which states have the most Denny’s locations per thousand square miles? What about La Quinta?

Build on the code above to calculate density:

# Remember to change eval=FALSE to eval=TRUE!
dennys %>%
  count(state) %>%
  inner_join(states, by = c("state" = "abbreviation")) %>%
  mutate(density = n / area * 1000) %>%
  arrange(desc(density))

## # A tibble: 51 × 5
##    state     n name                     area density
##    <chr> <int> <chr>                   <dbl>   <dbl>
##  1 DC        2 District of Columbia     68.3  29.3  
##  2 RI        5 Rhode Island           1545.    3.24 
##  3 CA      403 California           163695.    2.46 
##  4 CT       12 Connecticut            5543.    2.16 
##  5 FL      140 Florida               65758.    2.13 
##  6 MD       26 Maryland              12406.    2.10 
##  7 NJ       10 New Jersey             8723.    1.15 
##  8 NY       56 New York              54555.    1.03 
##  9 IN       37 Indiana               36420.    1.02 
## 10 OH       44 Ohio                  44826.    0.982
## # ℹ 41 more rows

Hint: Density = number of locations / area * 1000

Now do the same for La Quinta:

# Remember to change eval=FALSE to eval=TRUE!
# Your code here
laquinta %>%
  count(state) %>%
  inner_join(states, by = c("state" = "abbreviation")) %>%
  mutate(density = n / area * 1000) %>%
  arrange(desc(density))

## # A tibble: 48 × 5
##    state     n name             area density
##    <chr> <int> <chr>           <dbl>   <dbl>
##  1 RI        2 Rhode Island    1545.   1.29 
##  2 FL       74 Florida        65758.   1.13 
##  3 CT        6 Connecticut     5543.   1.08 
##  4 MD       13 Maryland       12406.   1.05 
##  5 TX      237 Texas         268596.   0.882
##  6 TN       30 Tennessee      42144.   0.712
##  7 GA       41 Georgia        59425.   0.690
##  8 NJ        5 New Jersey      8723.   0.573
##  9 MA        6 Massachusetts  10554.   0.568
## 10 LA       28 Louisiana      52378.   0.535
## # ℹ 38 more rows
…
