Lab 09 - Conveying the right message through visualisation
…
Hints:

You need data for Kansas counties with masks and without masks

Look at the original visualization to estimate the death counts

You might want columns for: county, mask policy (yes/no), and deaths

Verify your data:

# Remember to change eval=FALSE to eval=TRUE!
mask_data

## # A tibble: 46 × 4
##    county maskpolicy deaths date     
##    <chr>  <chr>       <dbl> <chr>    
##  1 Kansas yes            25 7/12/2020
##  2 Kansas yes            22 7/13/2020
##  3 Kansas yes            20 7/14/2020
##  4 Kansas yes            20 7/15/2020
##  5 Kansas yes            20 7/16/2020
##  6 Kansas yes            20 7/17/2020
##  7 Kansas yes            20 7/18/2020
##  8 Kansas yes            20 7/19/2020
##  9 Kansas yes            20 7/20/2020
## 10 Kansas yes            21 7/21/2020
## # ℹ 36 more rows
…
